{
    "unknown":0,
    "und":1,
    "en":2,
    "ja":3,
    "pt":4,
    "zh":5,
    "ko":6,
    "id":7,
    "es":8,
    "pl":9,
    "ar":10,
    "de":11,
    "fr":12,
    "no":13,
    "lb":14,
    "da":15,
    "it":16,
    "sv":17,
    "sh":18,
    "lt":19,
    "he":20,
    "nl":21,
    "tr":22,
    "hu":23,
    "ia":24,
    "th":25,
    "bs":26,
    "fi":27,
    "et":28,
    "jbo":29,
    "si":30,
    "ceb":31,
    "eo":32,
    "fa":33,
    "ro":34,
    "nds":35,
    "la":36,
    "ru":37,
    "ca":38,
    "hi":39,
    "sr":40,
    "uz":41,
    "ur":42,
    "ms":43,
    "cs":44,
    "eu":45,
    "ast":46,
    "yue":47,
    "sq":48,
    "io":49,
    "vi":50,
    "uk":51,
    "tl":52,
    "yi":53,
    "or":54,
    "vo":55,
    "lv":56,
    "sl":57,
    "sw":58,
    "el":59,
    "hy":60,
    "hr":61,
    "sk":62,
    "oc":63,
    "wuu":64,
    "kn":65,
    "jv":66,
    "gl":67,
    "ga":68,
    "kw":69,
    "cy":70,
    "bg":71,
    "br":72,
    "be":73,
    "fy":74,
    "te":75,
    "km":76,
    "wa":77,
    "nn":78,
    "ta":79,
    "war":80,
    "mn":81,
    "ml":82,
    "su":83,
    "hsb":84,
    "af":85,
    "lo":86,
    "mzn":87,
    "arz":88,
    "ilo":89,
    "mk":90,
    "mr":91,
    "li":92,
    "als":93,
    "ps":94,
    "is":95,
    "ie":96,
    "az":97,
    "kk":98,
    "azb":99,
    "ky":100,
    "bn":101,
    "an":102,
    "qu":103,
    "eml":104,
    "gd":105,
    "tg":106,
    "gv":107,
    "pam":108,
    "so":109,
    "gu":110,
    "cbk":111,
    "sco":112,
    "bar":113,
    "tt":114,
    "pa":115,
    "ce":116,
    "os":117,
    "frr":118,
    "ku":119,
    "vls":120,
    "rm":121,
    "my":122,
    "nap":123,
    "ka":124,
    "pnb":125,
    "sc":126,
    "lmo":127,
    "mg":128,
    "sd":129,
    "gn":130,
    "ne":131,
    "dv":132,
    "mt":133,
    "gom":134,
    "new":135,
    "ckb":136,
    "as":137,
    "min":138,
    "tk":139,
    "ug":140,
    "ba":141,
    "mwl":142,
    "yo":143,
    "lrc":144,
    "nah":145,
    "pms":146,
    "am":147,
    "cv":148,
    "vep":149,
    "xal":150,
    "bh":151,
    "sah":152,
    "bcl":153,
    "ht":154,
    "lez":155,
    "kv":156,
    "bo":157,
    "sa":158,
    "bxr":159,
    "scn":160,
    "diq":161,
    "bpy":162,
    "mhr":163,
    "av":164,
    "mrj":165,
    "vec":166,
    "myv":167,
    "krc":168,
    "co":169,
    "dsb":170,
    "pfl":171,
    "hif":172,
    "tyv":173,
    "xmf":174,
    "dty":175,
    "mai":176,
    "rue":177,
    "iu":178,
    "chr":179,
    "in":180,
    "iw":181
}